{
  "project_info": {
    "project_number": "192368888880",
    "firebase_url": "https://medi-bot-9c905.firebaseio.com",
    "project_id": "medi-bot-9c905",
    "storage_bucket": "medi-bot-9c905.appspot.com"
  },
  "client": [
    {
      "client_info": {
        "mobilesdk_app_id": "1:192368888880:android:7d64f93977c85cc2",
        "android_client_info": {
          "package_name": "com.nexus.apps.medibot"
        }
      },
      "oauth_client": [
        {
          "client_id": "192368888880-b10i3ulq9ps5b7rc9jm2ah3b6v8lm19a.apps.googleusercontent.com",
          "client_type": 1,
          "android_info": {
            "package_name": "com.nexus.apps.medibot",
            "certificate_hash": "eb6d9f7d786e60fbd88da694e01ac3072c5cae1b"
          }
        },
        {
          "client_id": "192368888880-ooajadpjf3gknva2e844u2ds7cinor1e.apps.googleusercontent.com",
          "client_type": 1,
          "android_info": {
            "package_name": "com.nexus.apps.medibot",
            "certificate_hash": "5da67513410f874f3afb524fdc97608d13028fb0"
          }
        },
        {
          "client_id": "192368888880-m0d1r13ved6hj955of9vq4h25uo10fb1.apps.googleusercontent.com",
          "client_type": 1,
          "android_info": {
            "package_name": "com.nexus.apps.medibot",
            "certificate_hash": "fc8cccfeac633e4a5b23821f6b9bbcba891645c9"
          }
        },
        {
          "client_id": "192368888880-5seogk751hberq7qvf5iidj7hl7p39ca.apps.googleusercontent.com",
          "client_type": 1,
          "android_info": {
            "package_name": "com.nexus.apps.medibot",
            "certificate_hash": "22611d67f89fffda7436840b56b1e4c92f29fac5"
          }
        },
        {
          "client_id": "192368888880-os0rsr8nbfo0ooscm22ohh1av59um78m.apps.googleusercontent.com",
          "client_type": 3
        }
      ],
      "api_key": [
        {
          "current_key": "AIzaSyBtH4ziDFiHuCzzx4h_TIU7XZtyzXQii6I"
        }
      ],
      "services": {
        "analytics_service": {
          "status": 1
        },
        "appinvite_service": {
          "status": 2,
          "other_platform_oauth_client": [
            {
              "client_id": "192368888880-eobc8qjt5hckk2dbm0p4m7jckggdrj5b.apps.googleusercontent.com",
              "client_type": 3
            }
          ]
        },
        "ads_service": {
          "status": 2
        }
      }
    }
  ],
  "configuration_version": "1"
}